historical data :
https://finfo-api.vndirect.com.vn/v3/stocks/financialStatement?secCodes=VHM&reportTypes=ANNUAL&modelTypes=1,2,3&toDate=2021-12-31

BALANCESHEET
https://finfo-api.vndirect.com.vn/v3/stocks/financialStatement?secCodes=VHM&reportTypes=ANNUAL&modelTypes=1,89,101,411&fromDate=2015-12-31&toDate=2021-12-31

INCOME
https://finfo-api.vndirect.com.vn/v3/stocks/financialStatement?secCodes=VHM&reportTypes=ANNUAL&modelTypes=2,90,102,412&fromDate=2015-12-31&toDate=2021-12-31

CASHFLOW
https://finfo-api.vndirect.com.vn/v3/stocks/financialStatement?secCodes=VHM&reportTypes=ANNUAL&modelTypes=3,91,103,413&fromDate=2015-12-31&toDate=2021-12-31

current data
https://finfo-api.vndirect.com.vn/v4/ratios/latest?filter=itemCode:51003,51016,51001,51002,51004,57066,51007,51006,51012,51033,51035,52002,52001,53007,&where=code:VHM&order=reportDate&fields=itemCode,value

https://finfo-api.vndirect.com.vn/v4/industry_classification?q=codeList:VHM~industryLevel:2,3
{"data":[{"industryCode":"8600","industryLevel":"2","higherLevelCode":"8000","englishName":"Real Estate","vietnameseName":"Bất động sản","totalCount":125.0,"codeList":"HDG,E29,TN1,FTI,KOS,VRE,TIP,TCH,HGR,TID,BCM,HPI,EIN,HD2,LDG,HGC,AGG,SZB,HD3,PWA,ILB,HPX,NRC,VPI,SNZ,CER,HTT,BAX,SID,PNT,NVL,HU6,HD8,CRE,HIZ,PLA,HRB,LEC,BDP,HBI,LAI,BVL,HD6,SIP,FIR,DCH,IDC,DTI,SGR,VHM,MH3,NTC,BII,SII,NHN,FLC,FIT,NLG,CEO,HAR,VNN,CCL,DIH,CIG,NDN,D11,SDI,HPR,C21,FDC,ASM,DXG,TIX,CSC,HDC,ITC,SDU,LGL,VPH,VNI,D2D,DIG,BCI,NBB,HAG,SZL,VIC,RCL,NTL,KBC,KHA,CII,UNI,SJS,TDH,ITA,PXL,PFL,SCR,KAC,HQC,TIG,OCH,IDJ,QCG,VRC,DRH,STL,CLG,PDR,PFV,DTA,PVR,OGC,VCR,NTB,DLR,IDV,TNT,NVT,PVL,PPI,NVN,LHG,KDH"},{"industryCode":"8630","industryLevel":"3","higherLevelCode":"8600","englishName":"Real Estate Investment & Services","vietnameseName":"Dịch vụ Đầu tư Bất Động Sản","totalCount":124.0,"codeList":"HDG,E29,TN1,FTI,KOS,VRE,TCH,HGR,TID,BCM,HPI,EIN,HD2,LDG,HGC,AGG,SZB,HD3,PWA,ILB,HPX,NRC,VPI,SNZ,CER,HTT,BAX,SID,PNT,NVL,HU6,HD8,CRE,HIZ,PLA,HRB,LEC,BDP,HBI,LAI,BVL,HD6,SIP,FIR,DCH,IDC,DTI,SGR,VHM,MH3,NTC,BII,SII,NHN,FLC,FIT,NLG,CEO,HAR,VNN,CCL,DIH,CIG,NDN,D11,SDI,HPR,C21,FDC,ASM,DXG,TIX,CSC,HDC,ITC,SDU,LGL,VPH,VNI,D2D,DIG,BCI,NBB,HAG,SZL,VIC,RCL,NTL,KBC,KHA,CII,UNI,SJS,TDH,ITA,PXL,PFL,SCR,KAC,HQC,TIG,OCH,IDJ,QCG,VRC,DRH,STL,CLG,PDR,PFV,DTA,PVR,OGC,VCR,NTB,DLR,IDV,TNT,NVT,PVL,PPI,NVN,LHG,KDH"}],"currentPage":1,"size":20,"totalElements":2,"totalPages":1}
8600 : BDS
2357 : xay dung cong trinh

https://finfo-api.vndirect.com.vn/v4/industry_classification?page=8

https://finfo-api.vndirect.com.vn/v4/company_profiles?q=code:VHM
{"data":[{"code":"VHM","floor":"HOSE","logo":"https://www.vndirect.com.vn/vndirect-resource/online/download/resource/Download.shtml?uri=news-attachment/nextcom/attachment/LOGO/VHM.PNG&fileName=VHM.PNG&catType=REPORT&contentDispositionFromRequest=inline","vnName":"VINHOMES","enName":"Vinhomes Joint Stock Company","foundDate":"2008-03-06","taxCode":"0102671977","registrationCode":"0102671977","vnAddress":"Tòa nhà văn phòng Symphony, đường Chu Huy Mân, phường Phúc Lợi, Long Biên, Hà Nội, Việt Nam","enAddress":"Ha Noi, Viet Nam","phone":"+84 (24) 39749350","fax":"+84 (24) 39749351","website":"www.vinhomes.vn","email":"","employees":8847.0,"vnSummary":"\nCông ty Cổ phần Vinhomes (VHM) có tiền thân là Công ty Cổ phần Đô thị BIDV-PP được thành lập năm 2008. Công ty hoạt động chính trong lĩnh vực đầu tư, phát triển và kinh doanh bất động sản nhà ở, văn phòng và các hạng mục liên quan. Theo CBRE, VHM chiếm khoảng 15% thị phần tổng số lượng căn hộ đã bán tại hai thị trường Thành phố Hồ Chí Minh và Hà Nội trong khoảng thời gian từ năm 2015 đến năm 2017. Bên cạnh đó, VHM đồng thời phát triển và cho thuê các dự án văn phòng làm việc. Tất cả các dự án văn phòng của VHM đều nằm liền kề các dự án Vinhomes hoặc VinCity hoặc là một cấu phần của các dự án phức hợp do Công ty phát triển. VHM được niêm yết và giao dịch trên Sở Giao dịch Chứng khoán Thành phố Hồ Chí Minh (HOSE) từ tháng 05/2018.","enSummary":"","companyId":"5873"}],"currentPage":1,"size":20,"totalElements":1,"totalPages":1}

personnel
https://finfo-api.vndirect.com.vn/v4/personnel?q=code:VHM~locale:VN&sort=displayOrder:ASC
{"data":[{"code":"VHM","personId":"3348","name":"Nguyễn Diệu Linh","position":"Chủ tịch HĐQT","group":"Hội đồng quản trị","yearOfBirth":"1974","salution":"Bà","identificationNumber":"011855072","effectiveDate":"2019-02-28","updatedDate":"2019-03-05","displayOrder":110.0,"locale":"VN"},{"code":"VHM","personId":"40067","name":"Mueen  Uddeen","position":"Thành viên HĐQT","group":"Hội đồng quản trị","yearOfBirth":"1955","salution":"Ông","identificationNumber":"K0021614R","effectiveDate":"2018-02-01","updatedDate":"2018-05-16","displayOrder":130.0,"locale":"VN"},{"code":"VHM","personId":"3338","name":"Phạm Nhật Vượng","position":"Thành viên HĐQT","group":"Hội đồng quản trị","yearOfBirth":"1968","salution":"Ông","identificationNumber":"001068008888","effectiveDate":"2019-02-28","updatedDate":"2019-09-23","displayOrder":130.0,"locale":"VN"},{"code":"VHM","personId":"40065","name":"Cao Thị Hà An","position":"Thành viên HĐQT","group":"Hội đồng quản trị","yearOfBirth":"1968","salution":"Bà","identificationNumber":"024370462","effectiveDate":"2018-02-01","updatedDate":"2018-05-16","displayOrder":130.0,"locale":"VN"},{"code":"VHM","personId":"11955","name":"Phạm Thiếu Hoa","position":"Thành viên HĐQT","group":"Hội đồng quản trị","yearOfBirth":"1963","salution":"Ông","identificationNumber":"011536700","effectiveDate":"2020-07-08","updatedDate":"2020-07-13","displayOrder":130.0,"locale":"VN"},{"code":"VHM","personId":"49143","name":"Trần Kiên Cường","position":"Thành viên HĐQT","group":"Hội đồng quản trị","salution":"Ông","effectiveDate":"2020-07-08","updatedDate":"2020-07-13","displayOrder":130.0,"locale":"VN"},{"code":"VHM","personId":"49141","name":"Hoang D. Quan","position":"Thành viên HĐQT","group":"Hội đồng quản trị","salution":"Ông","effectiveDate":"2020-07-08","updatedDate":"2020-07-13","displayOrder":130.0,"locale":"VN"},{"code":"VHM","personId":"49142","name":"Ashish Jaiprakash Shastry","position":"Thành viên HĐQT","group":"Hội đồng quản trị","salution":"Ông","effectiveDate":"2020-07-08","updatedDate":"2020-07-13","displayOrder":130.0,"locale":"VN"},{"code":"VHM","personId":"40066","name":"Varun  Kapur","position":"Thành viên HĐQT","group":"Hội đồng quản trị","yearOfBirth":"1969","salution":"Ông","identificationNumber":"Z2282120","effectiveDate":"2018-02-01","updatedDate":"2018-05-16","displayOrder":130.0,"locale":"VN"},{"code":"VHM","personId":"40073","name":"Phạm Khôi Nguyên","position":"Trưởng BKS","group":"Ban kiểm soát","yearOfBirth":"1990","salution":"Ông","identificationNumber":"163067186","effectiveDate":"2015-05-01","updatedDate":"2018-05-16","displayOrder":210.0,"locale":"VN"},{"code":"VHM","personId":"40074","name":"Đoàn Thị Thu Mai","position":"Thành viên BKS","group":"Ban kiểm soát","yearOfBirth":"1989","salution":"Bà","identificationNumber":"B5658885","effectiveDate":"2018-05-04","updatedDate":"2018-05-16","displayOrder":220.0,"locale":"VN"},{"code":"VHM","personId":"40075","name":"Lê Thị Duyên","position":"Thành viên BKS","group":"Ban kiểm soát","yearOfBirth":"1973","salution":"Bà","identificationNumber":"012946009","effectiveDate":"2018-02-01","updatedDate":"2018-05-16","displayOrder":220.0,"locale":"VN"},{"code":"VHM","personId":"11955","name":"Phạm Thiếu Hoa","position":"Tổng Giám đốc","group":"Ban điều hành","yearOfBirth":"1963","salution":"Ông","identificationNumber":"011536700","effectiveDate":"2019-05-18","updatedDate":"2019-05-22","displayOrder":310.0,"locale":"VN"},{"code":"VHM","personId":"40070","name":"Douglas  Farrell","position":"Phó TGĐ","group":"Ban điều hành","yearOfBirth":"1980","salution":"Ông","identificationNumber":"PE0417794","effectiveDate":"2018-02-01","updatedDate":"2018-05-16","displayOrder":320.0,"locale":"VN"},{"code":"VHM","personId":"50079","name":"Nguyễn Thu Hằng","position":"Phó TGĐ","group":"Ban điều hành","yearOfBirth":"1984","salution":"Bà","identificationNumber":"001184012181","effectiveDate":"2020-10-21","updatedDate":"2020-10-29","displayOrder":320.0,"locale":"VN"},{"code":"VHM","personId":"50078","name":"Mai Thu Thủy","position":"Phó TGĐ","group":"Ban điều hành","yearOfBirth":"1975","salution":"Bà","identificationNumber":"001175024009","effectiveDate":"2020-10-21","updatedDate":"2020-10-29","displayOrder":320.0,"locale":"VN"},{"code":"VHM","personId":"47658","name":"Nguyễn Vũ Hưng","position":"Phó TGĐ","group":"Ban điều hành","yearOfBirth":"1975","salution":"Ông","identificationNumber":"001075022631","effectiveDate":"2020-04-15","updatedDate":"2020-05-07","displayOrder":320.0,"locale":"VN"},{"code":"VHM","personId":"40069","name":"Nguyễn Đức Quang","position":"Phó TGĐ","group":"Ban điều hành","yearOfBirth":"1983","salution":"Ông","identificationNumber":"C2555999","effectiveDate":"2014-11-01","updatedDate":"2018-05-16","displayOrder":320.0,"locale":"VN"},{"code":"VHM","personId":"3349","name":"Phạm Văn Khương","position":"Phó TGĐ","group":"Ban điều hành","yearOfBirth":"1959","salution":"Ông","identificationNumber":"011539578","effectiveDate":"2018-10-01","updatedDate":"2018-10-03","displayOrder":320.0,"locale":"VN"},{"code":"VHM","personId":"40072","name":"Lê Thị Hải Yến","position":"GĐ Tài chính","group":"Ban điều hành","yearOfBirth":"1981","salution":"Bà","identificationNumber":"C0633207","effectiveDate":"2019-07-25","updatedDate":"2019-08-01","displayOrder":330.0,"locale":"VN"}],"currentPage":1,"size":20,"totalElements":26,"totalPages":2}

https://finfo-api.vndirect.com.vn/v4/ratios/latest?filter=itemCode:52002,52001,53007,&where=code:VHM~reportDate:gt:2021-02-04&order=reportDate&fields=itemCode,value

https://dchart-api.vndirect.com.vn/dchart/history?resolution=D&symbol=CRE&from=1623861385

php vendor/bin/doctrine orm:convert-mapping -f --from-database --namespace=App\Domain\Company\ annotation src/
php vendor/bin/doctrine orm:generate-entities src/
